<?xml version="1.0" encoding="UTF-8" standalone="no"?>
<!-- Created with Inkscape (http://www.inkscape.org/) -->

<svg
   xmlns:dc="http://purl.org/dc/elements/1.1/"
   xmlns:cc="http://creativecommons.org/ns#"
   xmlns:rdf="http://www.w3.org/1999/02/22-rdf-syntax-ns#"
   xmlns:svg="http://www.w3.org/2000/svg"
   xmlns="http://www.w3.org/2000/svg"
   xmlns:sodipodi="http://sodipodi.sourceforge.net/DTD/sodipodi-0.dtd"
   xmlns:inkscape="http://www.inkscape.org/namespaces/inkscape"
   width="256"
   height="256"
   viewBox="0 0 67.733332 67.733335"
   version="1.1"
   id="svg8"
   inkscape:version="0.92.4 (5da689c313, 2019-01-14)"
   sodipodi:docname="AppleS.svg">
  <defs
     id="defs2" />
  <sodipodi:namedview
     id="base"
     pagecolor="#ffffff"
     bordercolor="#666666"
     borderopacity="1.0"
     inkscape:pageopacity="0.0"
     inkscape:pageshadow="2"
     inkscape:zoom="0.7"
     inkscape:cx="147.768"
     inkscape:cy="236.51639"
     inkscape:document-units="mm"
     inkscape:current-layer="layer1"
     showgrid="true"
     units="px"
     inkscape:window-width="1366"
     inkscape:window-height="745"
     inkscape:window-x="-8"
     inkscape:window-y="-8"
     inkscape:window-maximized="1"
     inkscape:snap-object-midpoints="true">
    <inkscape:grid
       type="xygrid"
       id="grid815"
       empspacing="8" />
  </sodipodi:namedview>
  <metadata
     id="metadata5">
    <rdf:RDF>
      <cc:Work
         rdf:about="">
        <dc:format>image/svg+xml</dc:format>
        <dc:type
           rdf:resource="http://purl.org/dc/dcmitype/StillImage" />
        <dc:title></dc:title>
      </cc:Work>
    </rdf:RDF>
  </metadata>
  <g
     inkscape:label="Camada 1"
     inkscape:groupmode="layer"
     id="layer1"
     transform="translate(0,-229.26665)">
    <path
       inkscape:connector-curvature="0"
       style="fill:#000000;stroke-width:0.26458338;fill-opacity:1"
       d="m 49.515512,264.71103 c -0.02664,-4.54333 2.031753,-7.96759 6.188947,-10.49245 -2.325088,-3.33092 -5.842628,-5.16298 -10.479165,-5.51604 -4.390274,-0.34635 -9.193498,2.5582 -10.952157,2.5582 -1.858706,0 -6.109046,-2.43831 -9.453332,-2.43831 -6.901714,0.10657 -14.236472,5.50272 -14.236472,16.48161 0,3.2442 0.592926,6.59532 1.778735,10.04605 1.585516,4.5435 7.301421,15.67554 13.263821,15.49566 3.117781,-0.0774 5.322857,-2.21185 9.37991,-2.21185 3.937307,0 5.975884,2.21185 9.453401,2.21185 6.015685,-0.0868 11.185228,-10.20608 12.690799,-14.76282 -8.067446,-3.80378 -7.634487,-11.13857 -7.634487,-11.3719 z m -7.001658,-20.31874 c 3.37747,-4.01048 3.071175,-7.6612 2.971119,-8.97356 -2.984535,0.17361 -6.435443,2.03188 -8.400573,4.31696 -2.165232,2.45154 -3.437501,5.48269 -3.164397,8.90024 3.224429,0.24666 6.168939,-1.41231 8.593851,-4.24364 z"
       id="path6921" />
  </g>
</svg>
