<svg width="36" height="36" viewBox="0 0 36 36" fill="none" xmlns="http://www.w3.org/2000/svg">
<path fill-rule="evenodd" clip-rule="evenodd" d="M18 0C8.05887 0 0 8.05887 0 18C0 27.9411 8.05887 36 18 36C27.9411 36 36 27.9411 36 18C36 8.05887 27.9411 0 18 0ZM25.5091 19.4671L15.9513 27.6573C15.039 28.4413 13.6298 27.7933 13.6298 26.5921L13.6298 10.2093C13.6298 9.0081 15.039 8.36006 15.9513 9.1417L25.5091 17.3319C25.663 17.4639 25.7866 17.6277 25.8714 17.812C25.9561 17.9963 26 18.1967 26 18.3995C26 18.6023 25.9561 18.8028 25.8714 18.987C25.7866 19.1713 25.663 19.3351 25.5091 19.4671Z" fill="black"/>
</svg>
